<svg xmlns="http://www.w3.org/2000/svg" width="16" height="16" viewBox="0 0 16 16">
  <g fill="#039BC6">
    <path d="M8,16 C3.581722,16 0,12.418278 0,8 C0,3.581722 3.581722,0 8,0 C12.418278,0 16,3.581722 16,8 C16,12.418278 12.418278,16 8,16 Z M8,15.1666667 C11.9580407,15.1666667 15.1666667,11.9580407 15.1666667,8 C15.1666667,4.04195929 11.9580407,0.833333333 8,0.833333333 C4.04195929,0.833333333 0.833333333,4.04195929 0.833333333,8 C0.833333333,11.9580407 4.04195929,15.1666667 8,15.1666667 Z"/>
    <path d="M11.765756,7.84312473 L8.15745295,4.23574616 C8.0067603,4.08505352 7.80337146,4 7.59073766,4 L4.80246145,4 C4.35962846,4 4,4.35870397 4,4.80246145 L4,7.59073766 C4,7.80337146 4.08412902,8.0076848 4.23482167,8.15837745 L7.84220024,11.765756 C8.15560396,12.0791597 8.66315159,12.0791597 8.97655531,11.765756 L11.7648315,8.97747981 C12.0782352,8.66407608 12.0782352,8.15652846 11.765756,7.84312473 Z M6.4194028,6.4194028 C6.16701573,6.67178987 5.75654005,6.67178987 5.50415298,6.4194028 C5.25176591,6.16701573 5.25176591,5.75654005 5.50415298,5.50415298 C5.75654005,5.25176591 6.16701573,5.25176591 6.4194028,5.50415298 C6.67178987,5.75654005 6.67178987,6.16609123 6.4194028,6.4194028 Z"/>
  </g>
</svg>
